[
    "The Maharaja Co-Operative Urban Bank Ltd",
    "Nagrik Sahakari Bank Maryadit Vidisha",
    "Thrissur District Co-Operative Bank Ltd.",
    "Nagarik Samabay Bank Ltd.",
    "Sadalga Urban Souharda Sahakari Bank Niyamit",
    "The Surat District Co-Operative Bank Ltd . , Surat",
    "Sanmitra Mahila Nagari Sahakari Bank ",
    "The Andhra Bank Employees Co Operative Bank Ltd",
    "The Thoothukudi District Central Coop Bank Ltd",
    "Bharati Sahakari Bank Ltd., Pune",
    "Textile Traders Cooperative Bank Limited",
    "Citizen Credit Co-Op Bank Ltd.",
    "Manjeri Co-Operative Urban Bank Ltd",
    "The Tumkur District Co-Op Central Bank Ltd Tumkur",
    "Prime Co-Operative Bank Ltd",
    "Amazon Pay India Private Limited",
    "Sri Rama Cooperative Bank Ltd",
    "Jijau Commercial Co-Op Bank Ltd. Amravati",
    "The Accountant General'S Office Employees' Co-Operative Bank Ltd",
    "The Manipur Womens Cooperative Bank Ltd",
    "Ajantha Urban Co-Op Bank Ltd",
    "Shri Janata Sahakari Bank Ltd.,Halol",
    "Gs Mahanagar Co-Op Bank Ltd.",
    "The Jamnagar Peoples Co-Operative Bank Ltd",
    "Jawahar Sahakari Bank Ltd Hupari",
    "Shramik Nagrik Sahkari Bank Ltd",
    "The Anantapur District Co Operative Central Bank Ltd",
    "Fingrowth Cooperative Bank Ltd.",
    "Telangana Grameena Bank",
    "Prerana Co Operative Bank Ltd",
    "The Rajasthan State Cooperative Bank Ltd.",
    "Urban Co Op Bank Ltd Mainpuri",
    "Warangal Urban Cooperative Bank Ltd",
    "Citizen Co-Operative Bank Ltd., Noida.",
    "Delhi Nagrik Sehkari Bank Ltd.",
    "The Prakasam District Co-Operative Central Bank Ltd.,Ongole",
    "The Kodagu District Co-Op Central Bank Ltd",
    "Airtel Payments Bank",
    "Bhatpara Naihati Co Operative Bank Ltd",
    "The Radhasoami Urban Cooperative Bank Ltd",
    "The Guntur District Cooperative Central Bank Ltd.",
    "Axis Bank",
    "The Nandura Urban Co.Op. Bank Ltd., Nandura",
    "The South Indian Bank",
    "City Union Bank",
    "Transport Co-Operative Bank Ltd",
    "Karnataka Bank",
    "The Cosmos Cooperative Bank",
    "The Palghat Co-Operative Urban Bank Ltd.",
    "Madhya Pradesh Gramin Bank",
    "Bank Of Bahrain And Kuwait",
    "The District Cooperative Central Bank Ltd Srikakulam",
    "Shri Rukmini Sahakari Bank Ltd",
    "Koilkuntla Co Operative Bank Ltd",
    "The District Co Op Central Bank Ltd Kakinada",
    "Andhra Pradesh Mahesh Cooperative Urban Bank Ltd",
    "Ap Janata Co-Operative Urban Bank Ltd",
    "Vasai Vikas Sahakari Bank Ltd.",
    "Standard Urban Co-Op. Bank Ltd.",
    "Noble Co Op Bank Ltd",
    "The Udupi Co-Operative Town Bank Ltd - Udupi",
    "The Washim Urban Co-Operative Bank Ltd., Washim",
    "Ujjivan Small Finance Bank Limited",
    "Puduvai Bharathiar Grama Bank",
    "Kalyan Janata Sahakari Bank Ltd",
    "Uttar Banga Kshetriya Gramin Bank",
    "Sangli Urban Co-Operative Bank Ltd",
    "Svc Cooperative Bank Ltd",
    "Darjeeling District Central Co Operative Bank Ltd",
    "Andhra Pragathi Grameena Bank",
    "Northern Railway Multi State Primary Coop Bank Ltd",
    "Karnataka Gramin Bank",
    "The Bhuj Commercial Co-Op Bank Ltd",
    "The Kasaragod District Co-Operative Bank Ltd",
    "Nagrik Sahakari Bank Ltd Indore",
    "The Chamba Urban Cooperative Bank Ltd Chamba",
    "Manipur Rural Bank",
    "Utkal Grameen Bank",
    "Saurashtra Gramin Bank",
    "Parshwanath Co-Operative Bank Ltd",
    "Godavari Urban Co-Operative Bank Ltd.,Nashik",
    "The Surat District Co-Operative Bank Ltd, Surat",
    "Dakshin Bihar Gramin Bank",
    "The National Co Op Bank Ltd",
    "Prathama Gramin Bank",
    "The Baroda City Co-Operative Bank Ltd",
    "The Bathinda Central Co-Operative Bank Ltd.",
    "The Kopargaon Peoples Co Op Bank Ltd",
    "Unjha Nagarik Sahakari Bank Ltd",
    "The Jalore Central Cooperative Bank Ltd., Jalore ",
    "Maratha Cooperative Bank Ltd",
    "Shivdaulat Sahakari Bank Ltd",
    "Aman Sahakari Bank Ltd",
    "Shri Shivayogi Murughendra Swami Urban Co-Op Bank Ltd ",
    "Jain Co-Operative Bank Ltd.",
    "The Navjeevan Co-Operative Bank Ltd",
    "Navabharat Co-Op. Urban Bank Ltd.",
    "Panchsheel Mercantile Cooperative Bank Ltd",
    "Mahatma Fule Urban Cooperative Bank Ltd., Amravati",
    "Utkarsh Small Finance Bank",
    "The Wai Urban Co Op Bank Ltd",
    "Mahesh Sahakari Bank Ltd Pune",
    "Textile Co-Operative Bank Ltd",
    "The Chitnavispura Sahakari Bank Ltd",
    "National Urban Cooperative Bank Ltd",
    "The Town Co Op Bank Ltd Hoskote",
    "The Santragachi Co Operative Bank Limited",
    "The Junagadh Jilla Sahakari Bank Ltd.",
    "The Panvel Co-Op Urban Bank Ltd",
    "Indore Cloth Market Co Op Bank Ltd",
    "The Mudalagi Co-Operative Bank Ltd.",
    "Vaishya Sahakari Bank Ltd Mumbai",
    "The Hasti Co-Op. Bank Ltd",
    "The Pachora Peoples Co Op Bank Ltd Pachora",
    "Jamia Co-Operative Bank",
    "Shriram Urban Co-Operative Bank Ltd",
    "The Payyoli Co Op Urban Bank Ltd",
    "Mahoba Urban Coopretive Bank Ltd Mahoba",
    "The Revdanda Co-Operative Urban Bank Ltd.",
    "Federal Bank Ltd",
    "Pine Labs Pvt. Ltd.",
    "The Nehrunagar Co Op Bank Ltd",
    "Limbasi Urban Co Op Bank Ltd",
    "The Agrasen Nagari Sahakari Bank Ltd",
    "Shree Balaji Urban Co Op Bank Ltd",
    "The Malad Sahakari Bank Ltd",
    "The Vijayapura District Central Co-Operative Bank Ltd Vijayapura",
    "The Mahabaleshwar Urban Co-Operative Bank Ltd.,Mahabaleshwar",
    "Shri Chhatrapati Rajarshi Shahu Urban Coop Bank Ltd Beed",
    "Sarva Haryana Gramin Bank",
    "The Nandurbar Merchants Coop Bank Ltd Nandurbar",
    "Tamilnadu State Apex Co-Op Bank Ltd",
    "Progressive Co Op Bank Ltd",
    "The Ernakulam District Co-Operative Bank Ltd",
    "Odisha Gramya Bank",
    "Keshav Sehkari Bank Ltd",
    "Universal Co Op Urban Bank Ltd",
    "Shri Mahila Sewa Sahakari Bank Ltd., Ahmedabad",
    "Rajgurunagar Sahakari Bank Ltd.",
    "Vikas Sahakari Bank Limited Solapur",
    "The Kadappa District Co-Operative Central Bank Ltd",
    "The Belgaum District Central Cooperative Bank Ltd",
    "Shiva Sahakari Bank Niyamita Davangere",
    "Pune Cantonment Sahakari Bank Ltd",
    "Saptagiri Grameena Bank",
    "The Akola District Central Co-Op Bank Ltd Akola",
    "Sri Kannikaparameswari Co-Op. Bank Ltd., Davangere",
    "The Abhinav Sahakari Bank Limited",
    "Bhind Nagrik Sahakari Bank Mydt",
    "Bhilwara Urban Cooperative Bank Limited.",
    "The Kalna Town Credit Cooperative Bank Ltd",
    "Progressive Urban Co Op Bank Ltd",
    "The Kangra Co-Operative Bank Ltd",
    "The Vyankateshwara Sahakari Bank Ltd- Ichalkaranji",
    "The Baramati Sahakari Bank Ltd",
    "The Satara Sahakari Bank Ltd",
    "Sadguru Nagrik Sahakari Bank Bhopal",
    "The Modasa Nagarik Sahakari Bank Ltd.",
    "Rajkot Nagrik Sahakari Bank ",
    "Telangana State Cooperative Apex Bank",
    "The Krishna District Cooperative Bank Ltd",
    "Assam Gramin Vikas Bank",
    "Deendayal Nagari Sahakari Bank Ltd",
    "Badaun Zila Sahakari Bank Ltd Budaun",
    "The Kalupur Commercial Co Op Bank",
    "The Panipat Central Cooperative Bank Ltd",
    "Capital Small Finance Bank Ltd.",
    "The Varachha Co-Operative Bank Ltd",
    "Central Bank of India",
    "The Malleswaram Co-Operative Bank Ltd",
    "Abhyudaya Co Op Bank",
    "Tripura State Cooperative Bank Ltd",
    "Citizens Co-Operative Bank Ltd., Rajkot",
    "The Amravati Zilla-Parishad Shikshak Sahakari Bank Ltd., Amravati.",
    "Vaishya Sahakari Bank Ltd Mumbai",
    "Sihor Nagarik Sahakari Bank Ltd",
    "Standard Chartered Bank",
    "Dr. Ambedkar Nagrik Sahakari Bank Mydt Gwalior",
    "The Hindusthan Co-Operative Bank Ltd",
    "The Punjab State Cooperative Bank Ltd",
    "Suvarnayug Sahakari Bank Ltd",
    "Dhanera Mercantile Co Op Bank Ltd",
    "The Pavana Sahakari Bank Ltd",
    "The Khattri Cooperative Urban Bank Ltd",
    "Vivekanand Nagrik Sahkari Bank Mydt",
    "Lic Employees Co-Operative Bank Ltd,Udupi",
    "The Jammu & Kashmir Bank Limited.",
    "Arunachal Pradesh Rural Bank",
    "Shri Rajkot District Co Op Bank Ltd",
    "The Guruvayur Co-Operative Urban Bank Ltd",
    "The Bharuch Dccb",
    "Sawai Madhopur Urban Co Op Bank Ltd ",
    "Vikramaditya Nagrik Sahakari Bank",
    "Pimpri Chinchwad Sahakari Bank Maryadit, Pimpri",
    "Vyapari Sahakari Bank Maryadit Solapur",
    "The Dharmavaram Cooperative Town Bank Ltd",
    "The District Cooperative Central Bank Ltd Kurnool",
    "The Gandevi People'S Co Op Bank Ltd",
    "Sikar Kendriya Sahkari Bank Ltd., Sikar",
    "The Kanara District Central Co-Operative Bank Ltd",
    "The Mogaveera Co-Operative Bank Ltd",
    "Mansing Co Op Bank Ltd",
    "The Yashwant Co-Op Bank Ltd",
    "Doha Bank",
    "Apna Sahakari Bank",
    "The Saraswat Co Op Bank",
    "Model Co-Operative Bank Ltd",
    "Mann Deshi Mahila Sahkari Bank Ltd",
    "Wardha Zilla Parishad Emp Urban Co-Op Bank Ltd",
    "Mahesh Urban Co-Operative Bank Ltd Parbhani ",
    "Citi Bank",
    "The Railway Employees Cooperative Bank Ltd., Jaipur",
    "Dena Bank",
    "The Life Insurance Corporation Of India Staff Co-Operative Bank Ltd",
    "Amreli Nagarik Sahakari Bank Ltd",
    "Paschim Banga Gramin Bank",
    "Navi Mumbai Co-Operative Bank Limited",
    "The Guntur Co-Operative Urban Bank Ltd",
    "IDBI Bank",
    "The Gandhidham Mercantile Co-Operative Bank Ltd.",
    "The Ashta Peoples Co-Op Bank Ltd Ashta",
    "Ashok Sahakari Bank Ltd,.Ahmednagar",
    "The Shillong Cooperative Urban Bank Ltd",
    "The Proddatur Cooperative Town Bank Ltd",
    "Indraprastha Sehkari Bank Ltd",
    "The Adarsh Co-Operative Urban Bank Ltd., Hyderabad",
    "The Rander Peoples Co Op Bank Ltd",
    "The Sahyadri Sahakari Bank Ltd., Mumbai",
    "Pune District Central Co-Operative Bank Limited",
    "The Karjan Nagrik Sahakari Bank Ltd",
    "Rajapur Urban Cooperative Bank Ltd",
    "Zila Sahkari Bank Ltd Ghaziabad",
    "Peoples Co-Op Bank Ltd.Dholka Marketyard Branch",
    "Jivan Comm Co Op Bank Ltd",
    "Tamil Nadu Grama Bank",
    "Bank of India",
    "Rajasthan Marudhara Gramin Bank",
    "Punjab Gramin Bank",
    "Siddheshwar Urban Cooperative Bank Maryadit Sillod",
    "District Co Operative Bank Ltd Sitapur",
    "The Chiplun Urban Cooperative Bank Ltd",
    "The Tamilnadu Industrial Cooperative Bank Ltd",
    "Tjsb Sahakari Bank Ltd ",
    "The Mahudha Nagarik Sahakari Bank Ltd",
    "Development Bank Of Singapore",
    "The Cosmos Cooperative Bank ",
    "Sanmitra Mahila Nagari Sahakari Bank \nChandrapur \n",
    "Chaitanya Godavari Grameena Bank",
    "The Latur District Central Co-Operative Bank Ltd., Latur",
    "The Kumbakonam Central Co-Operative Bank Ltd",
    "The Kranthi Co-Operative Urban Bank Ltd.",
    "The Veraval Peoples Co Op Bank Ltd",
    "Maharashtra Gramin Bank",
    "The Nainital Bank Limited",
    "Guardian Souharda Sahakari Bank Niyamita",
    "The Mansa Nagarik Sahakari Bank Ltd",
    "District Co-Operative Bank Ltd.Raebareli",
    "Gujarat Mercantile Co-Operative Bank Ltd",
    "The Kolar And Chickballapur Dt Co Op Central Bank",
    "The Jamnagar Mahila Sahakari Bank Ltd.",
    "The Nawanagar Co-Operative Bank ",
    "The Bijnor Urban Co Operative Bank Ltd",
    "The Baghat Urban Co-Operative Bank Ltd",
    "Shree Vardhaman Sahakari Bank Ltd",
    "Shri Anand Nagari Sahakari Bank Ltd.,Chandrapur",
    "The Mysore Chamarajanagar Dist Coop Cen Bank Ltd",
    "The Boral Union Co Operative Bank Ltd ",
    "Indore Paraspar Sahkari Bank Ltd. Indore",
    "Bhilai Nagarik Sahakari Bank Maryadit",
    "Firozabad Zila Sahkari Bank Ltd",
    "DCB Bank Ltd.",
    "Sindhudurg  District Central Co Op Bank Ltd",
    "Ramgarhia Co-Operative Bank Ltd",
    "Shree Mahuva Nagrik Sahakari Bank Ltd.",
    "Rajarshi Shahu Sahakari Bank Ltd",
    "The Banaskantha Mercantile Co Operative Bank Ltd, Palanpur",
    "Dhanlaxmi Bank",
    "The Saurashtra Co-Operative Bank Ltd.",
    "Dombivli Nagari Sahakari Bank",
    "The Sarvodaya Nagrik Sahakari Bank Ltd.",
    "Dhule Vikas Shakari Bank Ltd",
    "Janaseva Sahakari Bank Ltd Pune",
    "The Tirur Urban Cooperative Bank Ltd",
    "Indapur Urban Co Op Bank Ltd Indapur",
    "CSB Bank Ltd",
    "Gopinath Patil Parsik Janata Sahakari Bank",
    "Shri Chhani Nagrik Sahkari Bank Ltd",
    "The Annasaheb Savant Co Op Urban Bank Mahad Ltd",
    "The Navnirman Co Op Bank Ltd",
    "The Kodinar Taluka Co-Operative Banking Union Ltd.",
    "Rendal Sahakari Bank Ltd.Rendal",
    "Himatnagar Nagarik Sahakari Bank Ltd",
    "The Business Co-Operative Bank Ltd",
    "Davanagere District Central Cooperative Bank",
    "Punjab National Bank",
    "Ellaquai Dehati Bank",
    "Shri Vinayak Sahakari Bank Ltd",
    "The Naval Dockyard Co-Operative Bank",
    "The Godhra Urban Co Operative Bank Ltd",
    "The Bolangir District Central Co-Operative Bank Ltd., Bolangir",
    "The Nasik Road Deolali Vyapari Sahakari Bank Ltd",
    "Rajkot Peoples Co-Operative Bank Ltd",
    "The Ajara Urban Co-Op. Bank Ltd.",
    "The Balusseri Cooperative Urban Bank Ltd No Ll27",
    "The Union Co-Operative Bank Ltd Naroda",
    "The Palakkad District Co-Op Bank Ltd(Kerala Bank Palakkad) ",
    "Kerala State Co Op Bank Ltd",
    "Shri Bharat Urban Co-Operative Bank Ltd Jaysingpur",
    "The Kollam District Co-Op Bank Ltd",
    "The Kottakkal Cooperative Urban Bank Ltd",
    "Varaccha Co Op Bank Ltd",
    "Zila Sahakari Bank Ltd Bijnor",
    "Shri Ganesh Sahakari Bank Limited",
    "Neelkanth Co Op Bank Ltd",
    "Chikmagalur Pattana Sahakara Bank Niyamitha",
    "The Khagaria District Central Cooperative Bank Ltd",
    "Bhavani Sahakari Bank Limited",
    "Konoklota Mahila Urban Coop Bank Ltd",
    "Noida Commercial Co-Operative Bak Ltd",
    "The Becharaji Nagarik Sahakari Bank Ltd.",
    "The Ichalkaranji Merchants Co-Op Bank Ltd",
    "The Chandigarh State Co-Op Bank Ltd",
    "The Anand Mercantile Co.Operative Bank Ltd., Anand",
    "Sanmitra Urban Co Op Bank Ltd Akola",
    "Sandur Pattana Souharda Sahakari Bank Niyamitha",
    "Jila Sahakari Kendriya Bank Maryadit, Balaghat",
    "The Gujarat State Coop Bank Ltd",
    "Urban Cooperative Bank Ltd",
    "Jalaun District Cooperative Bank Ltd Orai",
    "Ambajogai Peoples Coop Bank Ltd",
    "The Kukarwada Nagarik Sahakari Bank Ltd",
    "Dharamvir Sambhaji Urban Co-Operative Bank Ltd",
    "Sardar Bhiladwala Pardi Peoples Bank",
    "Nyayamitra Sahakari Bank Niyamita",
    "Sardar Singh Nagrik Sahkari Bank Maryadit",
    "Palus Sahakari Bank Ltd",
    "The Jampeta Co-Operative Urban Bank Ltd",
    "Janata Sahakari Bank Limted -Satara",
    "Development Co Operative Bank Ltd Kanpur",
    "Shri Gajanan Maharaj Urban Co.Op. Bank Ltd.Bhokardan",
    "Citizen Urban Coop Bank Jalandhar",
    "The Coastal Urban Co-Operative Bank Ltd - Kollam",
    "Janata Sahakari Bank Ltd Amravati",
    "The Feroke Co-Operative Urban Bank Ltd",
    "The Chembur Nagarik Sahakari Bank Ltd",
    "Dausa Kendriya Sahkari Bank Ltd., Dausa",
    "A.P Mahajan Urban Co Op Bank",
    "The Nanded District Central Co-Operative Bank Ltd",
    "Mehsana Urban Co-Operative Bank",
    "The Sathamba Peoples Co-Operative Bank Ltd",
    "Shri Shivayogi Murughendra Swami Urban Co-Op Bank Ltd",
    "The District Central Coop Bank Limited Eluru",
    "The Bijapur District Central Co-Op Bank",
    "Standard Urban Co-Op. Bank Ltd. ",
    "Durgapur Steel Peoples Coop Bank Ltd",
    "Vilas Co-Operative Bank Ltd.,Latur",
    "The Karnal Central Coop Bank Ltd",
    "Bilagi Pattana Sahakari Bank Niyamit",
    "Chittorgarh Kendriya Sahakari Bank Ltd. , Chittorgarh",
    "Nagar Sahkari Bank Ltd",
    "Ramrajya Sahakari Bank Ltd",
    "The Faridabad Central Co-Operative Bank Ltd",
    "Sulaimani Co-Operative Bank Limited",
    "Jalna Merchants Co Op Bank Ltd., Jalna",
    "The Ahmednagar District Central Co-Operative Bank Ltd.",
    "Shiva Sahakari Bank Niyamitha",
    "Mugberia Central Co-Operative Bank Ltd",
    "Jila Sahakari Kendriya Bank Maryadit, Chattarpur",
    "The Ghatal People's Cooperative Bank Ltd",
    "Rajdhani Nagar Sahakari Bank Ltd.",
    "The District Co-Operative Central Bank Limited, Visakhapatnam",
    "Woori Bank",
    "The Adinath Coop Bank Ltd",
    "Kozhikode District Co-Operative Bank",
    "Shree Kadi Nagarik Sahakari Bank Ltd",
    "Sangli District Primary Teachers Co-Operative Bank Ltd",
    "The Industrial Co-Operative Bank Ltd.",
    "Nasik District Central Co-Operative Bank Ltd",
    "The Financial Co-Operative Bank Ltd.",
    "The Ponani Co-Operative Urban Bank Ltd",
    "The Hisar Central Co-Operative Bank Ltd Hisar",
    "The Gandhi Cooperative Urban Bank Ltd",
    "Vishwas Co-Op Bank Ltd.",
    "Ponnampet Town Co-Operative Bank Niyamitha Ponnampet",
    "Sree Charan Souhardha Co-Op Bank Ltd",
    "Shree Botad Mercantile Co Op Bank Ltd",
    "The South Canara District Central Co-Operative Bank Ltd., Mangalore",
    "The Ganga Mercantile Urban Co Op Bank Ltd",
    "Siwan Central Cooperative Bank Ltd",
    "The Rajajinagar Cooperative Bank Ltd",
    "Vidyanand Co Op Bank Ltd",
    "The West Bengal State Cooperative Bank Ltd.",
    "The Malappuram District Co Op Bank Ltd",
    "Shri Sharan Veereshawar Sahakari Bank Niyamit Nalatwad",
    "Mahaveer Co-Operative Urban Bank Limited",
    "The Sultan'S Batter Coop Urban Bank Ltd",
    "Sardar Vallabhbhai Sahakari Bank Ltd",
    "Mahila Coop Nagrik Bank Ltd ",
    "Udaipur Urban Cooperative Bank Ltd.",
    "The Purnea District Central Cooperative Bank Ltd",
    "The Panipat Urban Cooperative Bank Ltd",
    "Mahesh Urban Coop Bank Ltd Ahmedpur",
    "The Satana Merchants Cooperative Bank Ltd - Satana",
    "The Solapur Social Urban Co-Op Bank Ltd",
    "Pragati Co Op Bank Ltd Thara",
    "Muzaffarnagar District Cooperative Bank Ltd",
    "The Jamnagar District Co-Operative Bank Ltd., Jamnagar",
    "The Palakkad District Co-Op Bank Ltd(Kerala Bank Palakkad)",
    "Emirates NBD Bank PJSC",
    "Sreenidhi Souharda Sahakari Bank Niyamitha",
    "Ace Cooperative Bank Ltd",
    "The Kottayam District Co-Operative Bank Ltd.",
    "The Mehsana District Central Co-Op. Bank Ltd,Mehsana",
    "The Satara District Central Coop Bank Ltd Satara",
    "The Darussalam Cooperative Urban Bank Ltd",
    "Udaipur Mahila Urban Cooperative Bank Ltd., Udaipur",
    "Patan Co-Opeartive Bank Ltd",
    "The Andhra Pradesh State Co-Operative Bank Ltd.",
    "Dilip Urban Cooperative Bank Ltd",
    "Sawai Madhopur Kendriya Sahkari Bank Ltd., Sawai Madhopur",
    "The Odisha State Co-Operative Bank Ltd",
    "Sri Potti Sriramulu Nellore Dccb",
    "Dhakuria Co Operative Bank Ltd",
    "Vidya Sahakari Bank Ltd",
    "Shri Mahalaxmi Co-Op Bank Ltd Kolhapur",
    "The Kosamba Mercantile Co-Op Bank Ltd",
    "The Varachha Co-Operative Bank Ltd ",
    "Weizmann Impex Service Enterprise Ltd",
    "Uttarkashi Zila Sahkari Bank Ltd",
    "The Prathamik Shikshak Sahakari Bank",
    "Urban Co Operativa Bank Ltd Siddharthnagar",
    "Mahila Co-Operative Bank Ltd",
    "Equitas Small Finance Bank Ltd.",
    "Valsad District Central Co Op Bank Ltd",
    "The Vaijapur Merchants Coop Bank Ltd",
    "The Mahemadabad Urban Peoples Co-Operative Bank Limited",
    "One MobiKwik Systems Limited",
    "Suco Souharada Sahakari Bank Ltd.",
    "Suryoday Small Finance Bank",
    "The Jaipur Central Cooperative Bank Ltd.",
    "The Kolhapur Urban Co-Op Bank Ltd",
    "Rajputana Mahila Urban Coop. Bank Ltd",
    "Shikshak Sahakari Bank Ltd",
    "Indusind Bank",
    "Fino Payments Bank",
    "Fincare Small Finance Bank Limited",
    "Seven Hills Cooperative Urban Bank Limited",
    "The Latur Urban Coop Bank Ltd Latur",
    "Shri Arihant Co-Operative Bank Ltd",
    "Shankkarrao Mohite Patil Sahakri Bank Ltd Akluj",
    "The Jind Central Co-Operative Bank Ltd",
    "The Konark Urban Co-Op Bank Ltd",
    "The Nakodar Hindu Urban Co Op Bank Ltd",
    "Adv Shamraoji Shinde Satyashodhak Bank Ltd",
    "Sihor Mercantile Co Op Bank Ltd",
    "The Shimoga District Co-Operative Central Bank Limited",
    "Yeshwant Nagari Sahakari Bank Ltd",
    "Shrikrishna Co-Op Bank Ltd. Umred",
    "Ratnagiri District Central Co-Operative Bank Ltd",
    "Udham Singh Nagar Sahakari Bank Ltd",
    "The Gandhinagar Urban Co Op Bank Ltd. , Gandhinagar Gujarat",
    "Patliputra Central Co-Operative Bank",
    "The Kangra Central Co-Op Bank Ltd",
    "Sanmitra Sahakari Bank Ltd",
    "Shri Chatrapati Shivaji Maharaj Sahakari Bank Niyamith Gulbarga",
    "Shrimant Malojiraje Sahakari Bank Ltd - Phaltan",
    "Mahesh Urbank Co Op Bank Ltd Parli V",
    "The Parwanoo Urban Cooperative Bank Ltd",
    "IDFC First Bank",
    "The Mahaveer Co-Operative Bank Ltd",
    "The Modern Co-Op. Bank Ltd.",
    "Koraput Central Co Operative Bank Ltd",
    "The Ojhar Merchant'S Co-Op Bank Ltd",
    "The Karnavati Co Op Bank Ltd",
    "The Jamkhandi Urban Co-Operative Bank Ltd",
    "IDFC Bank",
    "Madhyanchal Gramin Bank",
    "Paytm Payments Bank",
    "The Imphal Urban Co Operative Bank",
    "Au Small Finance Bank",
    "Shri Kanyaka Nagari Sahakari Bank Ltd",
    "The Yavatmal Urban Co.Op. Bank Ltd Yavatmal",
    "Kankaria Maninagar Nagrik Sahakari Bank Ltd., Maninagar Gujarat",
    "Sangola Urban Co-Operative Bank Ltd, Sangola",
    "Jila Sahakari Kendriya Bank Mydt Durg",
    "Keonjhar Central Cooperative Bank Ltd",
    "Irinjalakuda Town Co-Operative Bank Ltd",
    "Uttrakhand Cooperative Bank Ltd",
    "Belagavi Shree Basaveshwar Co Op Bank Ltd",
    "Jila Sahakari Kendriya Bank Maryadit, Satna",
    "Jugalkishor Tapdiya Shree Mahesh Ucb Aurangabadltd",
    "Amreli Jilla Madhyastha Sahakari Bank Ltd.",
    "India Post Payments Bank Limited",
    "Indore Premier Co-Oprative Bank, Indore",
    "Tamilnad Mercantile Bank",
    "Balasinor Nagarik Sahakari Bank Ltd",
    "Sangamner Merchants Co-Operative. Bankpur",
    "Janakalyan Sahakari Bank Ltd",
    "Jana Small Finance Bank",
    "Liluah Co-Operative Bank Ltd",
    "The Bavla Nagrik Sahakari Bank Ltd",
    "Marketyard Commercial Co Op Bank Ltd",
    "Kavita Urban Coop Bank Ltd",
    "The Vsv Co-Operative Bank Ltd",
    "Janata Sahakari Bank Pune",
    "Bhagini Nivedita Sahakari Bank Ltd.Pune",
    "Kota Nagrik Sahkari Bank Ltd., Kota",
    "Indrayani Cooperative Bank",
    "Janata Sahakari Bank Ltd Ajara",
    "Pali Urban Co-Operative Bank Ltd.",
    "KEB Hana Bank",
    "The Muslim Co-Operative Bank Ltd",
    "The Jain Sahakari Bank Ltd",
    "Samata Sahakari Bank Ltd",
    "Krishna Mercantile Co-Op Bank Ltd",
    "Jharkhand Gramin Bank",
    "Jhalawar Kendriya Sahkari Bank Ltd.",
    "Kolhapur Mahila Sahakari Bank Ltd.",
    "Akola Merchant Cooperative Bank Ltd",
    "Brahmadeodada Mane Sahakari Bank Ltd Solapur",
    "Koyana Sahakari Bank Ltd - Karad",
    "Sundarlal Sawaji Urban Co Op Bank Ltd",
    "Kookmin Bank",
    "Kodinar Nagrik Sahakari Bank, Kodinar",
    "The Jowai Co Op Urban Bank Ltd",
    "The Janata Co Op Bank Ltd.Godhra",
    "The Andhra Bank Employees Co-Operative Bank Ltd",
    "The Baroda Traders Co. Op. Bank Ltd. Vadodara",
    "The Daund Urban Co-Op Bank Ltd",
    "Kurmanchal Nagar Sahkari Bank Ltd",
    "Patan Co-Opeartive Bank Limited",
    "The Calicut Co Operative Urban Bank Ltd",
    "Alavi Co Op Bank Ltd",
    "Ravi Commercial Coop Bank",
    "Jila Sahakari Kendriya Bank Maryadit, Tikamgarh",
    "The Palamoor Cooperative Urban Bank Ltd",
    "The Kattappana Urban Co-Operative Bank Ltd",
    "Kallappanna Awade Ichalkaranji Janatasahakari Bank",
    "Valmiki Urban Cooperative Bank limited Pathri",
    "The Bharat Co-Operative Bank Ltd",
    "Kutch Cooperative Bank Ltd",
    "Kankaria Maninagar Nagrik Sahakari Bank Ltd., Maninagar (Gujarat)",
    "Katch District Central Co-Op. Bank Ltd",
    "Urban Co Operative Bank Limited Siddharthnagar",
    "Shri Yashwant Sahakari Bank Maryadit Kuditre",
    "Solapur Janata Sahakari Bank Limited",
    "Pragati Sahakari Bank Ltd",
    "The Kheda Peoples Co.Op Bank Ltd.,Kheda",
    "Paytm Bank",
    "Jankalyan Coop Bank Ltd Nashik",
    "Yes Bank Ltd.",
    "Rajadhani Co-Op. Urban Bank Ltd.",
    "Raiganj Central Co Op Bank Ltd",
    "Manvi Pattana Souharda Sahakari Bank Ni",
    "The Nasik Jilha Mahila Sahakari Bank Ltd",
    "The Mahudha Nagarik Sahakari Bank Ltd",
    "Lucknow Urban Co Op Bank Ltd",
    "Rajarshi Shahu Govt Servants Cooperative Bank Kolhapur",
    "Sarakari Naukarara Sahakari Bank Niyamat Vijayapur",
    "The Muvatt Upuzha Urban Co-Operative Bank",
    "Sri Basaveshwar Pattana Sahakari Bank Niyamt Sindg",
    "Lala Urban Co-Operative Bank Ltd",
    "Jharneshwar Nagrik Sahakari Bank Maryadit",
    "Lakhimpur Urban Cooperative Bank",
    "Lakshmi Vilas Bank",
    "Kerala Mercantile Coop Bank Ltd",
    "Jila Sahakari Kendriya Bank Maryadit, Betul",
    "Urban Cooperative Bank Ltd Basti",
    "The Mercantile Co Op Urban Bank Secunderabad Ltd",
    "Jila Sahakari Kendriya Bank Mydt.Ujjain",
    "The Kasaragod Cooperative Town Bank Ltd No 970",
    "Dausa Urban Cooperative Bank Ltd",
    "The Janata Co-Operative Bank Ltd",
    "ICICI Bank Ltd.",
    "The Malegaon Merchants Co.Op.Bank Ltd., Malegaon",
    "Udyam Vikas Sahakari Bank",
    "The Kanakamahalakshmi Co-Operative Bank Ltd",
    "Pandharpur Merchants Co Operative Bank Ltd",
    "Thane Bharat Sahakari Bank Ltd",
    "The Ludhiana Central Cooperative Bank Ltd",
    "S S L S A Kurundwad Urban Bank Ltd",
    "The Zoroastrian Co-Operative Bank Ltd",
    "North East Small Finance Bank Ltd.",
    "The Pratap Co-Operative Bank Ltd.",
    "The Mehsana Nagrik Sahakari Bank Ltd",
    "The Ottapalam Cooperative Urban Bank Ltd",
    "Omprakash Deora Peoples Co-Operative Bank Ltd.Hingoli",
    "Malviya Urban Co-Operative Bank Ltd",
    "The Saidapet Co Op Urban Bank Ltd",
    "Sree Mahayogi Lakshmamma Co-Op Bank",
    "Mizoram Urban Cooperative Development Bank Ltd",
    "The Sarvodaya Co-Operative Bank Ltd. Mumbai",
    "Raigad Sahakari Bank Ltd.",
    "The Meenachil East Urban Cooperative Bank Ltd",
    "The Shahada People'S Co-Op Bak Ltd., Shahada",
    "The Gokak Urban Co Op Credit Bank",
    "The Mandvi Nagarik Sahakari Bank Ltd.",
    "The Union Co Op Bank Ltd Mahinagar",
    "The Mysore Silk Cloth Merchants Co-Operative Bank Ltd",
    "Jila Sahakari Kendriya Bank Maryadit Raipur",
    "Nagar Urban Co Operative Bank Ltd",
    "The Ranuj Nagri Sahakari Bank Ltd.",
    "Shree Samarth Sahakari Bank Ltd Nashik",
    "Nagarik Sahakari Bank Ltd Bhiwandi",
    "Rajkot Nagrik Sahakari Bank",
    "Jila Sahakari Kendriya Bank Maryadit, Sehore",
    "Nagpur Nagarik Sahakari Bank Ltd",
    "The A.P. Rajarajeswari Mahila Co-Op. Urban Bank Ltd.",
    "The Naroda Nagrik Co-Operative Bank Ltd.,Ahmedabad",
    "Gandhibag Sahakari Bank Ltd Nagpur",
    "Zila Sahakari Bank Ltd Gorakhpur",
    "The Merchants Souharda Sahakara Bank Ni Chitradurga",
    "The Chanasma Nagrik Sahakari Bank Ltd Chanasma",
    "The National Co-Operative Bank Ltd Bangalore",
    "Jammu Central Co-Op Bank Ltd",
    "The Vita Merchants Coop Bank Ltd. Vita",
    "Cuttack Central Co-Operative Bank Ltd",
    "Qwikcilver Solutions Pvt. Ltd.",
    "Nalbari Urban Co-Operative Bank Ltd.",
    "Mizoram Rural Bank",
    "PayU Payments Private Limited",
    "Sadhana Sahakari Bank Ltd Pune",
    "DBS Bank",
    "The Krishnagar City Co Operative Bank Ltd",
    "Railway Employees Co-Operative Banking Society Ltd.; Jodhpur ",
    "The Akola Urban Co-Operative Bank Ltd., Akola.",
    "Nagrik Sahakari Bank Ltd Raipur",
    "The Gondia District Central Co-Op Bank Ltd.,Gondia",
    "The Amalner Co-Operative Urban Bank Ltd",
    "The Amravati District Central Co Op Bank Ltd",
    "The Shirpur Peoples Co-Op Bank Ltd.",
    "Dharmapuri District Central Co Op Bank Ltd",
    "The Chikhli Urban Co-Op Bank Ltd., Chikhli",
    "The Bhuj Mercantile Co-Operative Bank Ltd., Ahmedabad",
    "Uco Bank",
    "The Parbhani District Central Coop Bank Ltd",
    "The Urban Cooperative Bank Ltd Saharanpur",
    "PhonePe Private Limited",
    "Hanamasagar Urban Co-Operative Bank Ltd Hanamasagar",
    "Idukki District Co-Operative Bank",
    "Baroda Uttar Pradesh Gramin Bank",
    "Shree Bharat Co Op Bank Ltd",
    "The Burdwan Central Co-Operative Bank Ltd  ",
    "Sharad Sahakari Bank Ltd",
    "Defence Accounts Co Op Bank Ltd",
    "Zila Sahkari Bank Ltd. Garhwal (Kotdwara)",
    "Hubli Urban Co Op Bank Ltd",
    "Nainital District Co Operative Bank Ltd",
    "The Halol Mercantile Co Op Bank Ltd",
    "Bhadohi Urban Co-Operative Bank Ltd.",
    "Indian Overseas Bank",
    "The Pandharpur Urban Co-Op. Bank Ltd., Pandharpur",
    "The Sonepat Central Co Operative Bank Ltd",
    "Gramin Bank Of Aryavart",
    "New India Co-Op Bank Ltd",
    "Shivshakti Urban Co.Op.Bank Ltd.,Barshi",
    "The Sirsi Urban Sahakari Bank Ltd Sirsi",
    "The Payyanur Co Operative Town Bank Ltd Payyanur",
    "Sampada Sahakari Bank Ltd Pune",
    "The Aska Cooperative Central Bank Ltd Aska",
    "The Eluru Co-Operative Urban Bank Ltd",
    "The Babasaheb Deshmukh Sahakari Bank Ltd.",
    "D Y Patil Sahakari Bank Ltd Kolhapur",
    "The Womens Co-Operative Bank Ltd",
    "Hadagali Urban Co-Operative Bank Limited - Hadagali",
    "Tamluk-Ghatal Central Co-Operative Bank Ltd",
    "Jagruti Co-Operative Urban Bank Ltd",
    "Mandya District Co-Operative Central Bank Ltd.",
    "Koteshwara Sahakari Bank Niyamitha",
    "The Urban Co-Operative Bank Ltd Rourkela",
    "The Nilgiris District Central Coop Bank Ltd",
    "Sutex Co Op Bank Ltd",
    "NSDL Payments Bank Limited",
    "Sudha Co Op Urban Bank Ltd",
    "Jogindra Central Co Op Bank Ltd",
    "Vidharbha Kokan Gramin Bank",
    "Dhule & Nandurbar District Central Co-Op Bank Ltd. Dhule",
    "Shree Parswanath Co-Operative Bank Ltd",
    "Sonbhadra Nagar Sahkari Bank Ltd",
    "The Kodungallur Town Co-Operative Bank Ltd No.102",
    "The District Coop Central Bank Ltd Vizianagaram",
    "The Chittoor District Co Op Central Bank Ltd",
    "Sri Vasavamba Co Operative Bank Ltd   ",
    "Excellent Co-Operative Bank Ltd",
    "Jila Sahakari Kendriya Bank Maryadit, Khargone",
    "The Jalna District Central Coop Bank Ltd",
    "Vijay Commercial Co Operative Bank Ltd., Rajkot",
    "The Central Cooperative Bank Ltd., Bhilwada",
    "The Fatehabad Central Co-Op Bank Ltd",
    "Dapoli Urban Co Op Bank Ltd Dapoli",
    "Kotak Mahindra Bank",
    "The Manipur State Co Operative Bank Ltd",
    "The Bhagyodaya Co-operative Bank Ltd.",
    "Banda District Cooperative Bank Ltd Banda",
    "Rani Laxmibhai Urban Cooperative Bank Ltd",
    "Imperial Urban Co-Operative Bank Ltd Jalandhar",
    "Kumbhi Kasari Sahkari Bank Ltd Kuditre",
    "Jila Sahakari Kendriya Bank Maryadit, Ratlam",
    "District Cooperative Bank Limited Faizabad",
    "Jodhpur Nagarik Sahakari Bank",
    "Dr. Appasaheb Urf Sa. Re. Patil Jaysingpur Udgaon Sahakari Bank Ltd Jaysingpur",
    "Deogiri Nagari Sahakari Bank Ltd Aurangabad",
    "Jalore Nagrik Sahaakri Bank Ltd., Jalore",
    "Maharashtra State Co-Operative Bank Ltd",
    "The Meghalaya Co-Operative Apex Bank Ltd",
    "Jio Payments Bank Ltd",
    "The Bhavnagar District Co-Operative Bank Ltd.",
    "The Akola Janata Commercial Cooperative Bank Ltd A",
    "The Trivandrum Co-Operative Urban Bank Ltd",
    "Khardah Cooperative Bank Ltd",
    "The Jalgaon Peoples Co Op Bank Ltd",
    "Astha Mahila Nagrik Sahakari Bank Maryadit",
    "Agroha Co Operative Urban Bank Ltd",
    "Janata Urban Co-Operative Bank Ltd - Wai",
    "The Murshidabad District Central Co-Op Bank Ltd.",
    "The Madanapalle Cooperative Town Bank Ltd",
    "The Jodhpur Central Cooperative Bank Ltd., Jodhpur",
    "Nagrik Sahakari Bank Ltd Lucknow",
    "Deutsche Bank",
    "Pune Peoples Co-Op Bank Ltd",
    "The Gandhi Gunj Co-Operative Bank Ltd.",
    "The Gadchiroli District Central Co-Operative Bank",
    "Shri Vijay Mahantesh Coop Bank Ltd",
    "The Rajsamand Urban Cooperative Bank Ltd.",
    "The Khambhat Nagarik Sahakari Bank Ltd",
    "The Warangal District Cooperative Central Bank Ltd",
    "The Midnapore Peoples Cooperative Bank Ltd",
    "Daivadnya Sahakara Bank Niyamit",
    "District Co-Operative Bank Ltd,Dehradun",
    "Jijamata Mahila Sahakari Bank Ltd Pune",
    "The Erode District Central Co-Operative Bank Ltd",
    "Jalgaon Janata Sahakari Bank Ltd",
    "Himachal Pradesh Gramin Bank",
    "HSBC Bank",
    "Bank of Baroda",
    "Ahmednagar Zilha Prathmik Shikshak Sahakari Bank Ltd. ,Ahmednagar",
    "The Davangere Harihar Urban Sahakara Bank Niyamitha",
    "Peoples Urban Co-Operative Bank Ltd",
    "Indian Mer. Co-Op.Bank Ltd.",
    "Nagaland Rural Bank",
    "Adarniya P.D. Patilsaheb Sahakari Bank Ltd.",
    "The Income Tax Dept Coop Bank Ltd Mumbai",
    "Jivaji Sahakari Bank Ltd Ichalkaranji",
    "Laxmibai Mahila Nagrik Sahakari Bank Maradit",
    "Mangaldai Nagar Samabai Bank Ltd",
    "Etah District Cooperative Bank Ltd Etah",
    "The Rajkot Commercial Co-Operative Bank Ltd. ",
    "George Town Co-Operative Bank Ltd.",
    "The Karnatak Central Co-Operative Bank Ltd Dharwad",
    "Hotel Industrialists Co Op Bank Ltd",
    "Kerala Gramin Bank",
    "Samata Co-Operative Development Bank Ltd",
    "The Kannur Co-Op Urban Bank Ltd",
    "Unjha Nagarik Sahakari Bank Limited",
    "The Jalna Peoples Co Op Bank Ltd Jalna",
    "Jamshedpur Urban Co-Operative Bank Ltd",
    "Jaihind Urban Co-Op Bank Ltd,Wakad",
    "Integral Urban Co-Operative Bank Ltd",
    "The Niphad Urban Co-Op. Bank Ltd. Niphad",
    "The Pathanamthitta District Co-Operative Bank Ltd.",
    "The Raj Laxmi Mahila Urban Coop Bank Ltd Jaipur",
    "Nagrik Sahakari Bank Maryadit Gwalior",
    "Hutatma Sahakari Bank Ltd",
    "The Khordha Central Cooperative Bank Ltd.",
    "Loknete Dattaji Patil Sahakari Bank Ltd",
    "Nagar Sahakari Bank Ltd. Gorakhpur",
    "Nidhi Co Op Bank Ltd",
    "The Muzaffarpur Central Cooperative Bank Limited",
    "Nashik Zilha Sarkari And Parishad Karmachari Sb Nm",
    "The Jammu And Kashmir State Co-Operative Bank Ltd",
    "Mahanagar Nagrik Sahakari Bank",
    "Nagaland State Cooperative Bank Ltd",
    "Sabarkantha District Central Co-Operative Bank Ltd.",
    "Sardarganj Mercantile Co Op Bank Ltd",
    "Shree Mahalaxmi Urban Co-Op Credit Bank Ltd.",
    "The Bardoli Nagrik Sahakari Bank Ltd.",
    "The Chopda Peoples Co.Op. Bank Ltd",
    "The Dahod Mercantile Co Op Bank Ltd",
    "The Dahod Urban Co-Operative Bank Ltd",
    "The Deccan Merchants Co-Operative Bank Ltd",
    "The District Cooperative Bank Ltd Shahjahanpur",
    "The Faridkot Central Cooperative Bank Ltd",
    "Janata Co-Operative Bank Ltd - Malegaon",
    "Ambarnath Jai-Hind Co-Op.Bank Ltd.",
    "Balotra Urban Co-Operative Bank Ltd",
    "The Gayatri Cooperative Urban Bank Ltd",
    "Rohika Central Cooperative Bank Ltd Madhubani",
    "The Gopalganj Central Co-Opertative Bank Limited",
    "The Veraval Mercantile Co-Operative Bank Ltd",
    "Adarsh Mahila Nagari Sahkari Bank Ltd. Aurangabad",
    "The Alappuzha District Co Operative Bank Ltd",
    "The Aurangabad District Central Co-Operative Bank Ltd., Aurangabad",
    "The Manmandir Co-Op Bank Ltd",
    "The Kaduthuruthy Urban Co-Operative Bank Ltd",
    "Purasawalkam Co-Operative Bank Limited",
    "Shree Basaveshwar Urban Co-Operative Bank Ltd.",
    "Cherpalcheri Co-Operative Urban Bank Ltd - No 1696",
    "Janatha Seva Cooperative Bank Ltd",
    "The Moirang Primary Co-Operative Bank Ltd",
    "Jankalyan Urban Co-Operative Bank Ltd.",
    "Jila Sahakari Kendriya Bank Maryadit Jhabua",
    "Nishigandha Sahakari Bank Ltd. Pandharpur",
    "The Agrasen Co Op Urban Bank Ltd",
    "Jila Sahakari Kendriya Bank Maryadit, Mandla",
    "Citizen Urban Coop Bank, Jalandhar",
    "Pragathi Cooperative Bank Ltd - Bangalore",
    "Rajarambapu Sahakari Bank Ltd Peth",
    "Rajlaxmi Urban Co Operative Bank Ltd., Nashik",
    "Valmiki Urban Coop Bank Ltd. Pathri",
    "Vardhaman Mahil Co-Op. Urban Bank Ltd.",
    "The Santragachi Co Op Bank Ltd",
    "The Goa State Co-Operative Bank Ltd",
    "The Mattancherry Sarvajanik Coop Bank Ltd. No.3284",
    "Jila Sahakari Kendriya Bank Maryadit,Jagdalpur",
    "The Mahabhairab Coop Urban Bank Ltd",
    "Rani Channamma Mahila Sahakari Bank Belagavi",
    "Priyadarshani Nagari Sahakari Bank Ltd Jalna.",
    "Solapur Janata Sahakari Bank Ltd",
    "Progressive Mercantile Co Op Bank Ltd",
    "Osmanabad Janata Sahakari Bank Ltd. Osmanabad",
    "Pusad Urban Cooperative Bank",
    "The Sevalia Urban Co.-Op. Bank Ltd",
    "Almora Urban Co-Operative Bank Ltd",
    "The Makarpura Industrial Estate Cooperative Bank Ltd.",
    "The Lunawada Nagarik Sahakari Bank Ltd",
    "The Jalpaiguri Central Co-Operative Bank Ltd",
    " The Commercial Co-Operative Bank Ltd-Kolhapur",
    " Khalilabad Nagar Sahkari Bank Ltd",
    "Raje Vikramsinh Ghatge Co-Op Bank Ldt \r\n",
    "The Dhanbad Central Cooperative Bank Ltd\r\n",
    "HDFC Bank",
    "Pittoragarh Zila Sahakari Bank Ltd\r\n",
    "Col Rd Nikam Sainik Sahakari Bank Ltd\r\n",
    "The Panchkula Central Co-Operative Bank Ltd\r\n",
    "Union Bank of India",
    " M.S.Co-Operative Bank Ltd ",
    "Adarsh Mahila Mercantile Co Op Bank Ltd",
    "Canara Bank",
    "The Panchkula Urban Co-Operative Bank Lmited\r\n",
    "Transaction Analysts India Pvt Ltd T Wallet-ESD Call center",
    "Transerv Limited DHANIPAY",
    "Chittorgarh Urban Cooperative Bank Ltd\r\n",
    "The Shimoga Arecanut Mandy Merchants Co Op Bank Ltd\r\n",
    "Premium eBusiness Venture Pvt Ltd\r\n",
    "Belur Urban Co-Operative Bank Ltd",
    "Baroda Rajasthan Kshetriya Gramin Bank",
    "Baroda Gujarat Gramin Bank",
    "Obopay Mobile Technology India Private Limited\r\n",
    "Sodexo SVC India Pvt Ltd\r\n",
    "Paul Merchants Finance Pvt Ltd\r\n",
    "Transaction Analysts India Pvt Ltd TAG ITI Wallet-ITI SaaS Call Center",
    "Esaf Small Finance Bank",
    "Andaman & Nicobar State Co-Operative Bank Ltd.",
    "Kalaburagi District Central Co Op Bak Ltd",
    "SBM Bank India Ltd.",
    "Noida Commercial Co-Operative Bank Ltd",
    "The Merchants Liberal 8",
    "The Karur Vysya Bank Limited",
    "Nkgsb Co operative Bank",
    "Bangiya Gramin Vikas Bank",
    "Punjab And Sind Bank",
    "Bassein Catholic Cooperative Bank",
    "Andhra Pradesh Grameena Vikas Bank",
    "State Bank Of India",
    "Dindigul Central Cooperative Bank",
    "Bandhan Bank",
    "Chhattisgarh Rajya Gramin Bank",
    "Jammu & Kashmir Grameen Bank",
    "The Karnataka State Co-Operative Apex Bank Ltd",
    "The Municipal Co-Op Bank Ltd",
    "Uttarakhand Gramin Bank",
    "Poornawadi Nagrik Sahakari Bank M.Beed.",
    "Samarth Sahakari Bank Ltd",
    "Meghalaya Rural Bank",
    "Kamala Co Op Bank Ltd Solapur",
    "Tripura Gramin Bank",
    "The Nilambur Co-Operative Urban Bank Ltd",
    "The Ahmedabad Mercantile Co-Op Bank Ltd",
    "The Vijay Cooperative Bank Ltd",
    "Uttar Bihar Gramin Bank",
    "Indian Bank",
    "The Bhagyodaya Cooperative Bank Ltd.",
    "The Bhandara District Central Co-Operative Bank Ltd., Bhandara",
    "Vaishya Nagari Sahakari Bank Ltd; Parbhani",
    "The Azad Co Op Bank Ltd Gadag",
    "Sambalpur District Cooperative Central Bank Ltd",
    "Karnataka Vikas Grameena Bank",
    "Transerv Limited DHANIPAY",
    "The Rayat Sevak Co-Operative Bank Limited",
    "RBL Bank",
    "Nandani Sahakari Bank Ltd Nandani",
    "Pune Urban Co-Operative Bank Ltd",
    "Tumkur Grain Merchants Co-Operative Bank Ltd",
    "Chattisgarh Rajya Sahakari Bank Maryadit",
    "The Moga Central Cooperative Bank Ltd",
    "The Vallabh Vidyanagar Commercial Co Operative Bank Ltd.",
    "Bhopal Co-Operative Central Bank Ltd., Bhopal",
    "Sodexo SVC India Pvt Ltd",
    "Obopay Mobile Technology India Private Limited",
    "Arunachal Pradesh State Co Op Bank Ltd",
    "Paul Merchants Finance Pvt Ltd",
    "Premium eBusiness Venture Pvt Ltd",
    "Nagar Vikas Sahkari Bank Ltd",
    "The Panchkula Central Co-Operative Bank Ltd",
    "The Dhanbad Central Cooperative Bank Ltd",
    "Raje Vikramsinh Ghatge Co-Op Bank Ldt",
    "Transaction Analysts India Pvt Ltd TA Wallet TA Call center",
    "Sumerpur Mercantile Urban Cooperative Bank Ltd., Sumerpur",
    "Navanagara Urban Co-Operative Bank Ltd.",
    "Chandrapur District Central Co-Operative Bank Ltd.",
    "The Hassan District Co-Operative Central Bank Ltd",
    "The Nasik Merchants Cooperative Bank Ltd",
    "Bank of Maharashtra",
    "Akhand Anand Cooperative Bank Ltd.",
    "Jharkhand State Co-Operative Bank Ltd",
    "The Co-Op. Bank Of Mehsana Ltd.  ",
    "The Bhagyalakshmi Mahila Sahakari Bank Ltd",
    "The Sind Cooperative Urban Bank Ltd",
    "Lokmangal Cooperative Bank",
    "Wana Nagrik Sahakari Bank Ltd",
    "Kurla Nagarik Sahakari Bank Ltd",
    "Hcbl Co-Operative Bank Ltd",
    "The Quilon Co-Operative Urban Bank Ltd"
]